{
  "port": 6667,
  "pingTimeOut": 90,
  "senhaAcesso": "",
  "operadores": [
    {
      "username": "admin",
      "password": "senha"
    }
  ],
  "motd": "Bem vindo ao servidor IRC do G1-EMC-UFG!"
}